Webscraping Project - Analysising Metacritic Videogame Reviews
…
# Create a dataframe showing the number of genres that each title is associated with
count.genres.per.game <- genres.long %>% 
  filter(., !genre.value == " ") %>% 
  group_by(., platform, title) %>%
  summarize(num_genres = n())

## `summarise()` has grouped output by 'platform'. You can override using the `.groups` argument.

count.genres.per.game

## # A tibble: 17,085 x 3
## # Groups:   platform [22]
##    platform title                          num_genres
##    <chr>    <chr>                               <int>
##  1 3DS      3D After Burner II                      5
##  2 3DS      3D Classics: Kid Icarus                 5
##  3 3DS      3D Classics: Kirby's Adventure          5
##  4 3DS      3D Classics: TwinBee                    7
##  5 3DS      3D Classics: Urban Champion             5
##  6 3DS      3D Classics: Xevious                    7
##  7 3DS      3D Gunstar Heroes                       4
##  8 3DS      3D Out Run                              4
##  9 3DS      3D Sonic the Hedgehog 2                 3
## 10 3DS      3D Streets of Rage II                   3
## #  with 17,075 more rows
…
